…
- We can compute the posterior probability and credible interval for each of them.


```r
career_eb_vs_piazza <- bind_cols(
  career_eb,
  credible_interval_approx(piazza$alpha1, piazza$beta1,
                           career_eb$alpha1, career_eb$beta1)) %>%
  select(name, posterior, conf.low, conf.high)

career_eb_vs_piazza
```

```
## # A tibble: 10,590 x 4
##    name                             posterior conf.low conf.high
##    <chr>                                <dbl>    <dbl>     <dbl>
##  1 Ty Cobb              0.0000000000000000758  0.0441     0.0716
##  2 Rogers Hornsby       0.0000000000281        0.0345     0.0640
##  3 Shoeless Joe Jackson 0.0000000847           0.0279     0.0613
##  4 Ross Barnes          0.0000366              0.0214     0.0632
##  5 Ed Delahanty         0.000000704            0.0219     0.0518
##  6 Tris Speaker         0.000000157            0.0225     0.0505
##  7 Ted Williams         0.00000145             0.0206     0.0503
##  8 Billy Hamilton       0.00000693             0.0190     0.0503
##  9 Levi Meyerle         0.00407                0.00863    0.0579
## 10 Harry Heilmann       0.00000715             0.0180     0.0476
## # ... with 10,580 more rows
```
…
- Recall that the way we find a set of hypotheses with a given false discovery rate (FDR) is by filtering for a particular q-value


```r
better <- career_eb_vs_piazza %>%
  filter(qvalue < .05)

better
```

```
## # A tibble: 63 x 5
##    name                             posterior conf.low conf.high    qvalue
##    <chr>                                <dbl>    <dbl>     <dbl>     <dbl>
##  1 Ty Cobb              0.0000000000000000758   0.0441    0.0716  7.58e⁻¹⁷
##  2 Rogers Hornsby       0.0000000000281         0.0345    0.0640  1.40e⁻¹¹
##  3 Shoeless Joe Jackson 0.0000000847            0.0279    0.0613  2.82e⁻ ⁸
##  4 Tris Speaker         0.000000157             0.0225    0.0505  6.03e⁻ ⁸
##  5 Ed Delahanty         0.000000704             0.0219    0.0518  1.89e⁻ ⁷
##  6 Ted Williams         0.00000145              0.0206    0.0503  3.99e⁻ ⁷
##  7 Willie Keeler        0.00000461              0.0183    0.0473  1.00e⁻ ⁶
##  8 Billy Hamilton       0.00000693              0.0190    0.0503  1.74e⁻ ⁶
##  9 Harry Heilmann       0.00000715              0.0180    0.0476  2.34e⁻ ⁶
## 10 Lou Gehrig           0.0000143               0.0167    0.0461  3.54e⁻ ⁶
## # ... with 53 more rows
```
…
