…
# We'll fit the clusters only with players that have had at least 20 at-bats
starting_data <- career %>%
  filter(AB >= 20) %>%
  dplyr::select(-year, -bats, -isPitcher) %>%
  mutate(cluster = factor(sample(c("A", "B"), n(), replace = TRUE)))
```

```r
starting_data
```

```
## # A tibble: 3,420 x 6
##    playerID  name                   H    AB average cluster
##    <chr>     <chr>              <int> <int>   <dbl> <fct>  
##  1 abbotje01 Jeff Abbott           11    42  0.262  A      
##  2 abbotji01 Jim Abbott             2    21  0.0952 A      
##  3 abbotku01 Kurt Abbott          475  1860  0.255  B      
##  4 abbotky01 Kyle Abbott            3    31  0.0968 A      
##  5 abercre01 Reggie Abercrombie    86   386  0.223  A      
##  6 abnersh01 Shawn Abner          110   531  0.207  A      
##  7 abreubo01 Bobby Abreu         1607  5395  0.298  B      
##  8 abreuto01 Tony Abreu           129   509  0.253  B      
##  9 acevejo01 Jose Acevedo           8   101  0.0792 A      
## 10 aceveju01 Juan Acevedo           6    65  0.0923 A      
## # ... with 3,410 more rows
```
…
- Consider therefore that each player has a likelihood it would have been generated from cluster A, and a likelihood it would have been generated from cluster B (being sure to weight each by the prior probability of being in A or B):


```r
crosses <- starting_data %>%
  dplyr::select(-cluster) %>%
  crossing(fits) %>%
  mutate(likelihood = prior * VGAM::dbetabinom.ab(H, AB, alpha, beta))

crosses
```

```
## # A tibble: 6,840 x 11
##    playerID  name         H    AB average cluster alpha  beta number prior
##    <chr>     <chr>    <int> <int>   <dbl> <fct>   <dbl> <dbl>  <int> <dbl>
##  1 abbotje01 Jeff Ab…    11    42  0.262  A        13.8  48.4   1651 0.483
##  2 abbotje01 Jeff Ab…    11    42  0.262  B        11.8  42.4   1769 0.517
##  3 abbotji01 Jim Abb…     2    21  0.0952 A        13.8  48.4   1651 0.483
##  4 abbotji01 Jim Abb…     2    21  0.0952 B        11.8  42.4   1769 0.517
##  5 abbotku01 Kurt Ab…   475  1860  0.255  A        13.8  48.4   1651 0.483
##  6 abbotku01 Kurt Ab…   475  1860  0.255  B        11.8  42.4   1769 0.517
##  7 abbotky01 Kyle Ab…     3    31  0.0968 A        13.8  48.4   1651 0.483
##  8 abbotky01 Kyle Ab…     3    31  0.0968 B        11.8  42.4   1769 0.517
##  9 abercre01 Reggie …    86   386  0.223  A        13.8  48.4   1651 0.483
## 10 abercre01 Reggie …    86   386  0.223  B        11.8  42.4   1769 0.517
## # ... with 6,830 more rows, and 1 more variable: likelihood <dbl>
```
…
```r
assignments <- starting_data %>%
  dplyr::select(-cluster) %>%
  crossing(fits) %>%
  mutate(likelihood = prior * VGAM::dbetabinom.ab(H, AB, alpha, beta)) %>%
  group_by(playerID) %>%
  top_n(1, likelihood) %>%
  ungroup()

assignments
```

```
## # A tibble: 3,420 x 11
##    playerID  name         H    AB average cluster alpha  beta number prior
##    <chr>     <chr>    <int> <int>   <dbl> <fct>   <dbl> <dbl>  <int> <dbl>
##  1 abbotje01 Jeff Ab…    11    42  0.262  B        11.8  42.4   1769 0.517
##  2 abbotji01 Jim Abb…     2    21  0.0952 B        11.8  42.4   1769 0.517
##  3 abbotku01 Kurt Ab…   475  1860  0.255  A        13.8  48.4   1651 0.483
##  4 abbotky01 Kyle Ab…     3    31  0.0968 B        11.8  42.4   1769 0.517
##  5 abercre01 Reggie …    86   386  0.223  A        13.8  48.4   1651 0.483
##  6 abnersh01 Shawn A…   110   531  0.207  B        11.8  42.4   1769 0.517
##  7 abreubo01 Bobby A…  1607  5395  0.298  B        11.8  42.4   1769 0.517
##  8 abreuto01 Tony Ab…   129   509  0.253  A        13.8  48.4   1651 0.483
##  9 acevejo01 Jose Ac…     8   101  0.0792 B        11.8  42.4   1769 0.517
## 10 aceveju01 Juan Ac…     6    65  0.0923 B        11.8  42.4   1769 0.517
## # ... with 3,410 more rows, and 1 more variable: likelihood <dbl>
```
…
