…
- `prior` is an `ebb_prior` object (statistical model), which contains details on the beta distribution

Next step is to update each observation based on the overall statistical model. Done with `broom` package via the `augment` function:


```r
augment(prior, data = career)
```

```
## # A tibble: 9,756 x 10
##    playerID      H    AB name    .alpha1 .beta1 .fitted   .raw  .low .high
##    <chr>     <int> <int> <chr>     <dbl>  <dbl>   <dbl>  <dbl> <dbl> <dbl>
##  1 aaronha01  3771 12364 Hank A…  3868     8869   0.304 0.305  0.296 0.312
##  2 aaronto01   216   944 Tommie…   313     1004   0.238 0.229  0.215 0.261
##  3 abadan01      2    21 Andy A…    99.3    295   0.252 0.0952 0.210 0.296
##  4 abadijo01    11    49 John A…   108      314   0.256 0.224  0.216 0.299
##  5 abbated01   772  3044 Ed Abb…   869     2548   0.254 0.254  0.240 0.269
##  6 abbeych01   492  1751 Charli…   589     1535   0.277 0.281  0.259 0.297
##  7 abbotda01     1     7 Dan Ab…    98.3    282   0.259 0.143  0.216 0.304
##  8 abbotfr01   107   513 Fred A…   204      682   0.231 0.209  0.203 0.259
##  9 abbotje01   157   596 Jeff A…   254      715   0.262 0.263  0.235 0.291
## 10 abbotku01   523  2044 Kurt A…   620     1797   0.257 0.256  0.239 0.274
## # ... with 9,746 more rows
```
…
We often run these two steps in sequence:
- estimating the model
- then using it as a prior for each observation
- `ebbr`  package can combine this into one step with `add_ebb_estimate`


```r
eb_career <- career %>%
  add_ebb_estimate(H, AB, prior_subset = AB >= 500)

eb_career
```

```
## # A tibble: 9,756 x 10
##    playerID      H    AB name    .alpha1 .beta1 .fitted   .raw  .low .high
##    <chr>     <int> <int> <chr>     <dbl>  <dbl>   <dbl>  <dbl> <dbl> <dbl>
##  1 aaronha01  3771 12364 Hank A…  3868     8869   0.304 0.305  0.296 0.312
##  2 aaronto01   216   944 Tommie…   313     1004   0.238 0.229  0.215 0.261
##  3 abadan01      2    21 Andy A…    99.3    295   0.252 0.0952 0.210 0.296
##  4 abadijo01    11    49 John A…   108      314   0.256 0.224  0.216 0.299
##  5 abbated01   772  3044 Ed Abb…   869     2548   0.254 0.254  0.240 0.269
##  6 abbeych01   492  1751 Charli…   589     1535   0.277 0.281  0.259 0.297
##  7 abbotda01     1     7 Dan Ab…    98.3    282   0.259 0.143  0.216 0.304
##  8 abbotfr01   107   513 Fred A…   204      682   0.231 0.209  0.203 0.259
##  9 abbotje01   157   596 Jeff A…   254      715   0.262 0.263  0.235 0.291
## 10 abbotku01   523  2044 Kurt A…   620     1797   0.257 0.256  0.239 0.274
## # ... with 9,746 more rows
```
…
We solved this by fitting a prior that depended on AB, through beta-binomial regression. The `add_ebb_estimate` function offers this option, by setting `method = "gamlss"` and providing a formula to `mu_predictors`.


```r
eb_career_ab <- career %>%
  add_ebb_estimate(H, AB, method = "gamlss",
                    mu_predictors = ~ log10(AB))

eb_career_ab
```

```
## # A tibble: 9,756 x 14
##    playerID      H    AB name    .mu  .sigma .alpha0 .beta0 .alpha1 .beta1
##    <chr>     <int> <int> <chr> <dbl>   <dbl>   <dbl>  <dbl>   <dbl>  <dbl>
##  1 aaronha01  3771 12364 Hank… 0.288 0.00180   160      395    3931   8988
##  2 aaronto01   216   944 Tomm… 0.247 0.00180   137      418     353   1146
##  3 abadan01      2    21 Andy… 0.193 0.00180   107      448     109    467
##  4 abadijo01    11    49 John… 0.204 0.00180   113      442     124    480
##  5 abbated01   772  3044 Ed A… 0.265 0.00180   147      408     919   2680
##  6 abbeych01   492  1751 Char… 0.256 0.00180   142      413     634   1672
##  7 abbotda01     1     7 Dan … 0.180 0.00180    99.7    455     101    461
##  8 abbotfr01   107   513 Fred… 0.238 0.00180   132      423     239    829
##  9 abbotje01   157   596 Jeff… 0.240 0.00180   133      422     290    861
## 10 abbotku01   523  2044 Kurt… 0.259 0.00180   144      411     667   1932
## # ... with 9,746 more rows, and 4 more variables: .fitted <dbl>,
## #   .raw <dbl>, .low <dbl>, .high <dbl>
```
…
We wanted to get a posterior probability for the statement “this player’s true batting average is greater than .300”, so that we could construct a “Hall of Fame” of such players.

This method is implemented in the add_ebb_prop_test (notice that like `add_ebb_estimate`, it adds columns to existing data). `add_ebb_prop_test` takes the output of an earlier `add_ebb_estimate` operation, which contains posterior parameters for each observation, and appends columns to it:


```r
test_300 <- career %>%
  add_ebb_estimate(H, AB, method = "gamlss", mu_predictors = ~ log10(AB)) %>%
  add_ebb_prop_test(.300, sort = TRUE)

test_300
```

```
## # A tibble: 9,756 x 16
##    playerID      H    AB name    .mu  .sigma .alpha0 .beta0 .alpha1 .beta1
##    <chr>     <int> <int> <chr> <dbl>   <dbl>   <dbl>  <dbl>   <dbl>  <dbl>
##  1 cobbty01   4189 11434 Ty C… 0.287 0.00180     159    396    4348   7641
##  2 hornsro01  2930  8173 Roge… 0.281 0.00180     156    399    3086   5642
##  3 speaktr01  3514 10195 Tris… 0.285 0.00180     158    397    3672   7078
##  4 delahed01  2596  7505 Ed D… 0.280 0.00180     155    400    2751   5309
##  5 willite01  2654  7706 Ted … 0.280 0.00180     156    399    2810   5451
##  6 keelewi01  2932  8591 Will… 0.282 0.00180     157    398    3089   6057
##  7 lajoina01  3242  9589 Nap … 0.284 0.00180     158    397    3400   6744
##  8 jacksjo01  1772  4981 Shoe… 0.273 0.00180     152    403    1924   3612
##  9 gwynnto01  3141  9288 Tony… 0.284 0.00180     157    398    3298   6545
## 10 heilmha01  2660  7787 Harr… 0.281 0.00180     156    399    2816   5526
## # ... with 9,746 more rows, and 6 more variables: .fitted <dbl>,
## #   .raw <dbl>, .low <dbl>, .high <dbl>, .pep <dbl>, .qvalue <dbl>
```

(Note the `sort = TRUE` argument, which sorts in order of our confidence in each player). There are now too many columns to read easily, so we’ll select only a few of the most interesting ones:


```r
test_300 %>%
  select(name, H, AB, .fitted, .low, .high, .pep, .qvalue)
```

```
## # A tibble: 9,756 x 8
##    name                     H    AB .fitted  .low .high      .pep  .qvalue
##    <chr>                <int> <int>   <dbl> <dbl> <dbl>     <dbl>    <dbl>
##  1 Ty Cobb               4189 11434   0.363 0.354 0.371  2.64e⁻⁴⁹ 2.64e⁻⁴⁹
##  2 Rogers Hornsby        2930  8173   0.354 0.344 0.364  2.76e⁻²⁷ 1.38e⁻²⁷
##  3 Tris Speaker          3514 10195   0.342 0.333 0.351  7.30e⁻²¹ 2.43e⁻²¹
##  4 Ed Delahanty          2596  7505   0.341 0.331 0.352  6.09e⁻¹⁶ 1.52e⁻¹⁶
##  5 Ted Williams          2654  7706   0.340 0.330 0.350  1.94e⁻¹⁵ 5.10e⁻¹⁶
##  6 Willie Keeler         2932  8591   0.338 0.328 0.347  3.67e⁻¹⁵ 1.04e⁻¹⁵
##  7 Nap Lajoie            3242  9589   0.335 0.326 0.344  1.08e⁻¹⁴ 2.44e⁻¹⁵
##  8 Shoeless Joe Jackson  1772  4981   0.347 0.335 0.360  1.49e⁻¹⁴ 3.99e⁻¹⁵
##  9 Tony Gwynn            3141  9288   0.335 0.326 0.344  2.80e⁻¹⁴ 6.66e⁻¹⁵
## 10 Harry Heilmann        2660  7787   0.338 0.327 0.348  7.03e⁻¹⁴ 1.30e⁻¹⁴
## # ... with 9,746 more rows
```
…
```r
compare_piazza <- eb_career_ab %>%
  add_ebb_prop_test(piazza_params, approx = TRUE, sort = TRUE)
```

Again we select only a few interesting columns:


```r
compare_piazza %>%
  select(name, H, AB, .fitted, .low, .high, .pep, .qvalue)
```

```
## # A tibble: 9,756 x 8
##    name                     H    AB .fitted  .low .high      .pep  .qvalue
##    <chr>                <int> <int>   <dbl> <dbl> <dbl>     <dbl>    <dbl>
##  1 Ty Cobb               4189 11434   0.363 0.354 0.371  6.92e⁻¹⁷ 6.92e⁻¹⁷
##  2 Rogers Hornsby        2930  8173   0.354 0.344 0.364  4.16e⁻¹¹ 2.08e⁻¹¹
##  3 Tris Speaker          3514 10195   0.342 0.333 0.351  1.49e⁻ ⁷ 4.96e⁻ ⁸
##  4 Shoeless Joe Jackson  1772  4981   0.347 0.335 0.360  2.48e⁻ ⁷ 9.92e⁻ ⁸
##  5 Ed Delahanty          2596  7505   0.341 0.331 0.352  9.42e⁻ ⁷ 2.68e⁻ ⁷
##  6 Ted Williams          2654  7706   0.340 0.330 0.350  1.84e⁻ ⁶ 5.31e⁻ ⁷
##  7 Willie Keeler         2932  8591   0.338 0.328 0.347  5.06e⁻ ⁶ 1.18e⁻ ⁶
##  8 Harry Heilmann        2660  7787   0.338 0.327 0.348  8.64e⁻ ⁶ 2.11e⁻ ⁶
##  9 Billy Hamilton        2158  6268   0.339 0.328 0.350  1.10e⁻ ⁵ 3.10e⁻ ⁶
## 10 Nap Lajoie            3242  9589   0.335 0.326 0.344  1.58e⁻ ⁵ 4.37e⁻ ⁶
## # ... with 9,746 more rows
```
…
Note that it took only about one full iteration for the parameters to get pretty close to their eventual values. We can also examine the change in cluster assignments for each observation:


```r
assignments <- mm$iterations$assignments

assignments
```

```
## # A tibble: 18,450 x 10
##    iteration playerID      H    AB  year isPitcher name     bats  .cluster
##        <int> <chr>     <int> <int> <dbl> <lgl>     <chr>    <fct> <chr>   
##  1         1 abbotje01    11    42  2001 F         Jeff Ab… R     2       
##  2         1 abbotku01   473  1851  1997 F         Kurt Ab… R     2       
##  3         1 abbotky01     2    29  1992 T         Kyle Ab… L     1       
##  4         1 abercre01    86   386  2007 F         Reggie … R     1       
##  5         1 abnersh01   110   531  1989 F         Shawn A… R     2       
##  6         1 abreubo01  1602  5373  2003 F         Bobby A… L     2       
##  7         1 abreuto01   127   497  2010 F         Tony Ab… B     1       
##  8         1 acevejo01     6    77  2002 T         Jose Ac… R     1       
##  9         1 ackerji01     3    28  1986 T         Jim Ack… R     1       
## 10         1 adamecr01    62   278  2016 F         Cristhi… B     1       
## # ... with 18,440 more rows, and 1 more variable: .likelihood <dbl>
```
…
