Simulation of Empirical Bayesian Methods
…
Shrinkage on Simulated Data

The beta-binomial model is easy to simulate, with applications of the rbeta and rbinom functions:

# always set a seed when simulating
set.seed(2017)

career_sim <- career %>%
  mutate(p = rbeta(n(), alpha0, beta0),
         H = rbinom(n(), AB, p))

career_sim

## # A tibble: 10,590 x 4
##    playerID      H    AB     p
##    <chr>     <int> <int> <dbl>
##  1 aaronha01  3661 12364 0.299
##  2 aaronto01   229   944 0.249
##  3 abadan01      2    21 0.273
##  4 abadijo01     6    49 0.198
##  5 abbated01   746  3044 0.249
##  6 abbeych01   445  1751 0.264
##  7 abbotda01     2     7 0.191
##  8 abbotfr01   122   513 0.251
##  9 abbotje01   154   596 0.243
## 10 abbotku01   583  2044 0.261
## # ... with 10,580 more rows
…
So far, we ran a single simulation of our players batting averages, used it to perform estimation, and then examined whether our results were accurate. This is a valuable way to sanity-check the accuracy of the empirical Bayes method.

But what if we just got lucky? What if empirical Bayes shrinkage works about half the time, and on some datasets it gives terrible results? This is an important concern if we want to trust the method on our real data. As the next step, rather than simulating a single example, lets create 50 simulations, and run the method on each of them. We can then examine how the method performs on real data.

set.seed(2017)

sim_replications <- career %>%
  crossing(replication = 1:50) %>%
  mutate(p = rbeta(n(), alpha0, beta0),
         H = rbinom(n(), AB, p))

sim_replications

## # A tibble: 529,500 x 5
##    playerID      H    AB replication     p
##    <chr>     <int> <int>       <int> <dbl>
##  1 aaronha01  3736 12364           1 0.299
##  2 aaronha01  3079 12364           2 0.249
##  3 aaronha01  3323 12364           3 0.273
##  4 aaronha01  2405 12364           4 0.198
##  5 aaronha01  3109 12364           5 0.249
##  6 aaronha01  3283 12364           6 0.264
##  7 aaronha01  2353 12364           7 0.191
##  8 aaronha01  3053 12364           8 0.251
##  9 aaronha01  3043 12364           9 0.243
## 10 aaronha01  3268 12364          10 0.261
## # ... with 529,490 more rows

sim_replication_models <- sim_replications %>%
  nest(-replication) %>%
  mutate(prior = map(data, ~ ebb_fit_prior(., H, AB)))

Estimations of prior parameters

sim_replication_priors <- sim_replication_models %>%
  unnest(map(prior, tidy), .drop = TRUE)

sim_replication_priors

## # A tibble: 50 x 4
##    replication alpha  beta  mean
##          <int> <dbl> <dbl> <dbl>
##  1           1  69.0   206 0.251
##  2           2  72.5   216 0.252
##  3           3  72.7   217 0.250
##  4           4  74.3   222 0.251
##  5           5  71.9   215 0.250
##  6           6  71.8   214 0.251
##  7           7  72.7   217 0.251
##  8           8  71.3   213 0.251
##  9           9  75.9   227 0.251
## 10          10  71.5   213 0.251
## # ... with 40 more rows
…
